/home/damian/pjwstk/java_workspace/todo-webapp/src/main/java/pl/edu/pjwstk/gdansk/s10908/jaz/todo/web/LoginController.java
/home/damian/pjwstk/java_workspace/todo-webapp/src/main/java/pl/edu/pjwstk/gdansk/s10908/jaz/todo/domain/User.java
/home/damian/pjwstk/java_workspace/todo-webapp/src/main/java/pl/edu/pjwstk/gdansk/s10908/jaz/todo/service/TodoServiceBean.java
/home/damian/pjwstk/java_workspace/todo-webapp/src/main/java/pl/edu/pjwstk/gdansk/s10908/jaz/todo/domain/Priority.java
/home/damian/pjwstk/java_workspace/todo-webapp/src/main/java/pl/edu/pjwstk/gdansk/s10908/jaz/todo/domain/Task.java
/home/damian/pjwstk/java_workspace/todo-webapp/src/main/java/pl/edu/pjwstk/gdansk/s10908/jaz/todo/web/LogoutServlet.java
/home/damian/pjwstk/java_workspace/todo-webapp/src/main/java/pl/edu/pjwstk/gdansk/s10908/jaz/todo/service/AuthenticationService.java
/home/damian/pjwstk/java_workspace/todo-webapp/src/main/java/pl/edu/pjwstk/gdansk/s10908/jaz/todo/service/TodoService.java
/home/damian/pjwstk/java_workspace/todo-webapp/src/main/java/pl/edu/pjwstk/gdansk/s10908/jaz/todo/service/AuthenticationServiceBean.java
/home/damian/pjwstk/java_workspace/todo-webapp/src/main/java/pl/edu/pjwstk/gdansk/s10908/jaz/todo/web/TodoController.java
